Exercises
…
3. Apart from the US, most countries use fuel consumption (fuel consumed over fixed distance) rather than fuel economy (distance travelled with fixed amount of fuel). How could you convert cty and hwy into the European standard of 1/100km?

mpg %>%
  transmute(cty_km = cty * 235.215, hwy_hm = hwy * 235.215)
#> # A tibble: 234 x 2
#>    cty_km hwy_hm
#>     <dbl>  <dbl>
#>  1   4234   6821
#>  2   4940   6821
#>  3   4704   7292
#>  4   4940   7056
#>  5   3763   6116
#>  6   4234   6116
#>  7   4234   6351
#>  8   4234   6116
#>  9   3763   5880
#> 10   4704   6586
#> # ... with 224 more rows
…
